…
Using `norm_samp_1000`, obtain the mean and standard deviation of this
sample?

``` r
norm_samp_1000 %>%
  summarise(values) %>%
  mutate(mean = mean(values), sd = sd(values))
```

    ## # A tibble: 1,000 x 3
    ##    values  mean    sd
    ##     <dbl> <dbl> <dbl>
    ##  1   38.2  50.2  9.59
    ##  2   55.5  50.2  9.59
    ##  3   56.9  50.2  9.59
    ##  4   40.1  50.2  9.59
    ##  5   40.2  50.2  9.59
    ##  6   59.2  50.2  9.59
    ##  7   56.7  50.2  9.59
    ##  8   54.3  50.2  9.59
    ##  9   39.8  50.2  9.59
    ## 10   53.1  50.2  9.59
    ## # … with 990 more rows
…
  
  
}


generate_n_samples(1000, x = 1, y = 2)
```

    ## # A tibble: 1,000 x 4
    ##    Normal Exponential chi_sqaure uniform
    ##     <dbl>       <dbl>      <dbl>   <dbl>
    ##  1 -0.509      0.873       3.26     1.55
    ##  2  0.601      0.139       1.91     1.16
    ##  3  1.24       0.198       1.07     1.92
    ##  4  0.753      2.04        1.65     1.89
    ##  5  0.924      0.787       1.58     1.82
    ##  6  1.71       0.0688      0.437    1.89
    ##  7  1.16       0.880       0.618    1.49
    ##  8  0.354      0.415       1.05     1.18
    ##  9  0.322      0.514       0.154    1.25
    ## 10  0.124      0.0360      0.582    1.83
    ## # … with 990 more rows
…
